{
    "Name": "Préférence de créneaux",
    "Type": "Agenda",
    "Keywords": ["Créneaux", "Préférence", "Agenda"],
    "Triggers": {
        "REQ1": "Je voudrais que mes [$pt] soient le [$agenda] .",
        "REQ2": "Je ne veux pas que mes [$pt] soient le [$agenda] ."
    },
    "Requests": {
        "REQ1": {
            "rules": [
                {
                    "name": "Préférence",
                    "type": "Time",
                    "parameter": [
                        {
                            "name": "Part",
                            "type": "Integer",
                            "value": "[$pt]"
                        },
                        {
                            "name": "Agenda",
                            "Type": "String",
                            "value": "[$agenda]"
                        }
                    ],
                    "scope": []
                }
            ]
        },
        "REQ2": {
            "rules": [
                {
                    "name": "Préférence",
                    "type": "Time",
                    "parameter": [
                        {
                            "name": "Part",
                            "type": "Integer",
                            "value": "[$pt]"
                        },
                        {
                            "name": "Agenda",
                            "Type": "String",
                            "value": "[$agenda]"
                        }
                    ],
                    "scope": []
                }
            ]
        }
    },
    "Examples": {
        "REQ1": ["Je voudrais que mes CM soient le mardi."],
        "REQ2": ["Je ne veux pas que mes TP soient le vendredi."]
    },
    "Optional": []
}
